…
    ## [1] 1 3 6

An example of when `reduce()` might come in handy is when you want to
perform many `left_join()`s in a row, or to do repeated `rbinds()`
(e.g. to bind the rows of the list back together into a single data
frame)

``` r
gapminder_list %>%
  reduce(bind_rows)
```

    ## # A tibble: 25 x 6
    ##    country             year      pop continent lifeExp gdpPercap
    ##    <fct>              <int>    <dbl> <fct>       <dbl>     <dbl>
    ##  1 Gambia              1967   439593 Africa       35.9      735.
    ##  2 Sierra Leone        1967  2662190 Africa       34.1     1206.
    ##  3 Namibia             1997  1774766 Africa       58.9     3900.
    ##  4 Equatorial Guinea   1992   387838 Africa       47.5     1132.
    ##  5 Cote d'Ivoire       2002 16252726 Africa       46.8     1649.
    ##  6 Dominican Republic  1997  7992357 Americas     70.0     3614.
    ##  7 Puerto Rico         1987  3444468 Americas     74.6    12281.
    ##  8 Honduras            1992  5077347 Americas     66.4     3082.
    ##  9 Uruguay             2007  3447496 Americas     76.4    10611.
    ## 10 Costa Rica          1962  1345187 Americas     62.8     3461.
    ## # ... with 15 more rows
…
